{
  "annotations": {
    "list": [
      {
        "builtIn": 1,
        "datasource": "-- Grafana --",
        "enable": true,
        "hide": true,
        "iconColor": "rgba(0, 211, 255, 1)",
        "name": "Annotations & Alerts",
        "type": "dashboard"
      }
    ]
  },
  "editable": true,
  "gnetId": null,
  "graphTooltip": 0,
  "links": [],
  "panels": [
    {
      "collapsed": false,
      "datasource": null,
      "gridPos": {
        "h": 1,
        "w": 24,
        "x": 0,
        "y": 0
      },
      "id": 2,
      "panels": [],
      "repeat": "disk",
      "scopedVars": {
        "disk": {
          "selected": true,
          "text": "/dev/sda",
          "value": "/dev/sda"
        }
      },
      "title": "storage (rpi02:sda)",
      "type": "row"
    },
    {
      "datasource": null,
      "description": "",
      "fieldConfig": {
        "defaults": {
          "custom": {
            "align": null,
            "filterable": false
          },
          "mappings": [],
          "thresholds": {
            "mode": "absolute",
            "steps": [
              {
                "color": "green",
                "value": null
              },
              {
                "color": "red",
                "value": 80
              }
            ]
          }
        },
        "overrides": []
      },
      "gridPos": {
        "h": 5,
        "w": 4,
        "x": 0,
        "y": 1
      },
      "id": 25,
      "options": {
        "content": "<br>\n<h3><strong>Toshiba Internal Hybrid</strong></h3>\n<h4>Specs: 2.5\" 1TB 5400 RPM</h4>\n<h4>Model: MQ02ABD100H</h4>\n<h4>Serial: X7DNTI1JT</h4>\n",
        "mode": "html"
      },
      "pluginVersion": "7.3.5",
      "timeFrom": null,
      "timeShift": null,
      "title": "Info",
      "type": "text"
    },
    {
      "datasource": null,
      "description": "",
      "fieldConfig": {
        "defaults": {
          "custom": {},
          "decimals": 1,
          "mappings": [],
          "thresholds": {
            "mode": "absolute",
            "steps": [
              {
                "color": "green",
                "value": null
              }
            ]
          },
          "unit": "h"
        },
        "overrides": []
      },
      "gridPos": {
        "h": 5,
        "w": 5,
        "x": 4,
        "y": 1
      },
      "id": 17,
      "options": {
        "colorMode": "value",
        "graphMode": "none",
        "justifyMode": "auto",
        "orientation": "auto",
        "reduceOptions": {
          "calcs": [
            "lastNotNull"
          ],
          "fields": "",
          "values": false
        },
        "textMode": "auto"
      },
      "pluginVersion": "7.3.5",
      "targets": [
        {
          "expr": "smart_power_on_hours{disk=\"/dev/sda\",instance=\"rpi02.scrw.ca:9100\"}",
          "interval": "",
          "legendFormat": "",
          "refId": "A"
        }
      ],
      "timeFrom": null,
      "timeShift": null,
      "title": "Power on hours",
      "type": "stat"
    },
    {
      "datasource": null,
      "fieldConfig": {
        "defaults": {
          "custom": {},
          "mappings": [],
          "thresholds": {
            "mode": "absolute",
            "steps": [
              {
                "color": "green",
                "value": null
              },
              {
                "color": "red",
                "value": 1
              }
            ]
          }
        },
        "overrides": []
      },
      "gridPos": {
        "h": 5,
        "w": 5,
        "x": 9,
        "y": 1
      },
      "id": 18,
      "options": {
        "colorMode": "value",
        "graphMode": "none",
        "justifyMode": "auto",
        "orientation": "auto",
        "reduceOptions": {
          "calcs": [
            "lastNotNull"
          ],
          "fields": "",
          "values": false
        },
        "textMode": "auto"
      },
      "pluginVersion": "7.3.5",
      "targets": [
        {
          "expr": "smart_reallocated_sector_ct{disk=\"/dev/sda\",instance=\"rpi02.scrw.ca:9100\"} + smart_udma_crc_error_count{disk=\"/dev/sda\",instance=\"rpi02.scrw.ca:9100\"} + smart_raw_read_error_rate{disk=\"/dev/sda\",instance=\"rpi02.scrw.ca:9100\"}",
          "interval": "",
          "legendFormat": "",
          "refId": "A"
        }
      ],
      "timeFrom": null,
      "timeShift": null,
      "title": "Total errors",
      "type": "stat"
    },
    {
      "datasource": null,
      "description": "",
      "fieldConfig": {
        "defaults": {
          "custom": {},
          "mappings": [],
          "thresholds": {
            "mode": "absolute",
            "steps": [
              {
                "color": "green",
                "value": null
              }
            ]
          },
          "unit": "short"
        },
        "overrides": []
      },
      "gridPos": {
        "h": 5,
        "w": 5,
        "x": 14,
        "y": 1
      },
      "id": 19,
      "options": {
        "colorMode": "value",
        "graphMode": "none",
        "justifyMode": "auto",
        "orientation": "auto",
        "reduceOptions": {
          "calcs": [
            "lastNotNull"
          ],
          "fields": "",
          "values": false
        },
        "textMode": "auto"
      },
      "pluginVersion": "7.3.5",
      "targets": [
        {
          "expr": "smart_load_cycle_count{disk=\"/dev/sda\",instance=\"rpi02.scrw.ca:9100\"}",
          "interval": "",
          "legendFormat": "",
          "refId": "A"
        }
      ],
      "timeFrom": null,
      "timeShift": null,
      "title": "Load cycle count",
      "type": "stat"
    },
    {
      "datasource": null,
      "fieldConfig": {
        "defaults": {
          "custom": {},
          "decimals": 1,
          "mappings": [],
          "thresholds": {
            "mode": "absolute",
            "steps": [
              {
                "color": "green",
                "value": null
              }
            ]
          },
          "unit": "ms"
        },
        "overrides": []
      },
      "gridPos": {
        "h": 5,
        "w": 5,
        "x": 19,
        "y": 1
      },
      "id": 10,
      "options": {
        "colorMode": "value",
        "graphMode": "none",
        "justifyMode": "auto",
        "orientation": "auto",
        "reduceOptions": {
          "calcs": [
            "mean"
          ],
          "fields": "",
          "values": false
        },
        "textMode": "auto"
      },
      "pluginVersion": "7.3.5",
      "targets": [
        {
          "expr": "smart_spin_up_time{disk=\"/dev/sda\",instance=\"rpi02.scrw.ca:9100\"}",
          "interval": "",
          "legendFormat": "",
          "refId": "A"
        }
      ],
      "timeFrom": null,
      "timeShift": null,
      "title": "Spin up time",
      "type": "stat"
    },
    {
      "aliasColors": {
        "smart_temperature_celsius{disk=\"/dev/sdb\", instance=\"rpi01.scrw.ca:9100\", job=\"rpi\"}": "orange"
      },
      "bars": false,
      "dashLength": 10,
      "dashes": false,
      "datasource": null,
      "description": "",
      "fieldConfig": {
        "defaults": {
          "custom": {},
          "unit": "celsius"
        },
        "overrides": []
      },
      "fill": 1,
      "fillGradient": 0,
      "gridPos": {
        "h": 7,
        "w": 12,
        "x": 0,
        "y": 6
      },
      "hiddenSeries": false,
      "id": 12,
      "legend": {
        "avg": false,
        "current": false,
        "max": false,
        "min": false,
        "show": false,
        "total": false,
        "values": false
      },
      "lines": true,
      "linewidth": 1,
      "nullPointMode": "null",
      "options": {
        "alertThreshold": true
      },
      "percentage": false,
      "pluginVersion": "7.3.5",
      "pointradius": 2,
      "points": false,
      "renderer": "flot",
      "seriesOverrides": [],
      "spaceLength": 10,
      "stack": false,
      "steppedLine": false,
      "targets": [
        {
          "expr": "smart_temperature_celsius{disk=\"/dev/sda\",instance=\"rpi02.scrw.ca:9100\"}",
          "interval": "",
          "legendFormat": "",
          "refId": "A"
        }
      ],
      "thresholds": [],
      "timeFrom": null,
      "timeRegions": [],
      "timeShift": null,
      "title": "Temperature",
      "tooltip": {
        "shared": true,
        "sort": 0,
        "value_type": "individual"
      },
      "type": "graph",
      "xaxis": {
        "buckets": null,
        "mode": "time",
        "name": null,
        "show": true,
        "values": []
      },
      "yaxes": [
        {
          "$$hashKey": "object:184",
          "decimals": null,
          "format": "celsius",
          "label": null,
          "logBase": 1,
          "max": "80",
          "min": "0",
          "show": true
        },
        {
          "$$hashKey": "object:185",
          "format": "short",
          "label": null,
          "logBase": 1,
          "max": null,
          "min": null,
          "show": true
        }
      ],
      "yaxis": {
        "align": false,
        "alignLevel": null
      }
    },
    {
      "aliasColors": {
        "smart_off_retract_count{disk=\"/dev/sdb\", instance=\"rpi01.scrw.ca:9100\", job=\"rpi\"}": "purple",
        "smart_power_cycle_count{disk=\"/dev/sdb\", instance=\"rpi01.scrw.ca:9100\", job=\"rpi\"}": "blue",
        "smart_start_stop_count{disk=\"/dev/sdb\", instance=\"rpi01.scrw.ca:9100\", job=\"rpi\"}": "orange"
      },
      "bars": false,
      "dashLength": 10,
      "dashes": false,
      "datasource": null,
      "description": "",
      "fieldConfig": {
        "defaults": {
          "custom": {}
        },
        "overrides": []
      },
      "fill": 0,
      "fillGradient": 0,
      "gridPos": {
        "h": 7,
        "w": 12,
        "x": 12,
        "y": 6
      },
      "hiddenSeries": false,
      "id": 22,
      "legend": {
        "avg": false,
        "current": false,
        "max": false,
        "min": false,
        "show": true,
        "total": false,
        "values": false
      },
      "lines": true,
      "linewidth": 2,
      "nullPointMode": "null",
      "options": {
        "alertThreshold": true
      },
      "percentage": false,
      "pluginVersion": "7.3.5",
      "pointradius": 2,
      "points": false,
      "renderer": "flot",
      "seriesOverrides": [],
      "spaceLength": 10,
      "stack": false,
      "steppedLine": false,
      "targets": [
        {
          "expr": "smart_start_stop_count{disk=\"/dev/sda\",instance=\"rpi02.scrw.ca:9100\"}",
          "interval": "",
          "legendFormat": "smart_start_stop_count",
          "refId": "A"
        },
        {
          "expr": "smart_power_cycle_count{disk=\"/dev/sda\",instance=\"rpi02.scrw.ca:9100\"}",
          "interval": "",
          "legendFormat": "smart_power_cycle_count",
          "refId": "B"
        },
        {
          "expr": "smart_off_retract_count{disk=\"/dev/sda\",instance=\"rpi02.scrw.ca:9100\"}",
          "interval": "",
          "legendFormat": "smart_off_retract_count",
          "refId": "C"
        }
      ],
      "thresholds": [],
      "timeFrom": null,
      "timeRegions": [],
      "timeShift": null,
      "title": "Other Counts",
      "tooltip": {
        "shared": true,
        "sort": 0,
        "value_type": "individual"
      },
      "type": "graph",
      "xaxis": {
        "buckets": null,
        "mode": "time",
        "name": null,
        "show": true,
        "values": []
      },
      "yaxes": [
        {
          "format": "short",
          "label": null,
          "logBase": 1,
          "max": null,
          "min": null,
          "show": true
        },
        {
          "format": "short",
          "label": null,
          "logBase": 1,
          "max": null,
          "min": null,
          "show": true
        }
      ],
      "yaxis": {
        "align": false,
        "alignLevel": null
      }
    },
    {
      "collapsed": false,
      "datasource": null,
      "gridPos": {
        "h": 1,
        "w": 24,
        "x": 0,
        "y": 13
      },
      "id": 6,
      "panels": [],
      "title": "backup (rpi01:sda)",
      "type": "row"
    },
    {
      "datasource": null,
      "description": "123",
      "fieldConfig": {
        "defaults": {
          "custom": {
            "align": null,
            "filterable": false
          },
          "mappings": [],
          "thresholds": {
            "mode": "absolute",
            "steps": [
              {
                "color": "green",
                "value": null
              },
              {
                "color": "red",
                "value": 80
              }
            ]
          }
        },
        "overrides": []
      },
      "gridPos": {
        "h": 5,
        "w": 4,
        "x": 0,
        "y": 14
      },
      "id": 24,
      "options": {
        "content": "<br>\n<h3><strong>Western Digital Red</strong></h3>\n<h4>Specs: 3.5\" 3TB 5400 RPM</h4>\n<h4>Model: WDC WD30EFRX-68EUZN0</h4>\n<h4>Serial: WD-WCC4N6HZS60R</h4>\n",
        "mode": "html"
      },
      "pluginVersion": "7.3.5",
      "timeFrom": null,
      "timeShift": null,
      "title": "Info",
      "type": "text"
    },
    {
      "datasource": null,
      "description": "",
      "fieldConfig": {
        "defaults": {
          "custom": {},
          "decimals": 1,
          "mappings": [],
          "thresholds": {
            "mode": "absolute",
            "steps": [
              {
                "color": "green",
                "value": null
              }
            ]
          },
          "unit": "h"
        },
        "overrides": []
      },
      "gridPos": {
        "h": 5,
        "w": 5,
        "x": 4,
        "y": 14
      },
      "id": 4,
      "options": {
        "colorMode": "value",
        "graphMode": "none",
        "justifyMode": "auto",
        "orientation": "auto",
        "reduceOptions": {
          "calcs": [
            "lastNotNull"
          ],
          "fields": "",
          "values": false
        },
        "textMode": "auto"
      },
      "pluginVersion": "7.3.5",
      "scopedVars": {
        "disk": {
          "selected": true,
          "text": "/dev/sda",
          "value": "/dev/sda"
        }
      },
      "targets": [
        {
          "expr": "smart_power_on_hours{disk=\"/dev/sda\",instance=\"rpi01.scrw.ca:9100\"}",
          "interval": "",
          "legendFormat": "",
          "refId": "A"
        }
      ],
      "timeFrom": null,
      "timeShift": null,
      "title": "Power on hours",
      "type": "stat"
    },
    {
      "datasource": null,
      "fieldConfig": {
        "defaults": {
          "custom": {},
          "mappings": [],
          "thresholds": {
            "mode": "absolute",
            "steps": [
              {
                "color": "green",
                "value": null
              },
              {
                "color": "red",
                "value": 1
              }
            ]
          }
        },
        "overrides": []
      },
      "gridPos": {
        "h": 5,
        "w": 5,
        "x": 9,
        "y": 14
      },
      "id": 8,
      "options": {
        "colorMode": "value",
        "graphMode": "none",
        "justifyMode": "auto",
        "orientation": "auto",
        "reduceOptions": {
          "calcs": [
            "lastNotNull"
          ],
          "fields": "",
          "values": false
        },
        "textMode": "auto"
      },
      "pluginVersion": "7.3.5",
      "targets": [
        {
          "expr": "smart_reallocated_sector_ct{disk=\"/dev/sda\",instance=\"rpi01.scrw.ca:9100\"} + smart_seek_error_rate{disk=\"/dev/sda\",instance=\"rpi01.scrw.ca:9100\"} + smart_spin_retry_count{disk=\"/dev/sda\",instance=\"rpi01.scrw.ca:9100\"} + smart_calibration_retry_count{disk=\"/dev/sda\",instance=\"rpi01.scrw.ca:9100\"} + smart_reallocated_event_count{disk=\"/dev/sda\",instance=\"rpi01.scrw.ca:9100\"} + smart_current_pending_sector{disk=\"/dev/sda\",instance=\"rpi01.scrw.ca:9100\"} + smart_offline_uncorrectable{disk=\"/dev/sda\",instance=\"rpi01.scrw.ca:9100\"} + smart_udma_crc_error_count{disk=\"/dev/sda\",instance=\"rpi01.scrw.ca:9100\"} + smart_multi_zone_error_rate{disk=\"/dev/sda\",instance=\"rpi01.scrw.ca:9100\"} + smart_raw_read_error_rate{disk=\"/dev/sda\",instance=\"rpi01.scrw.ca:9100\"}",
          "interval": "",
          "legendFormat": "",
          "refId": "A"
        }
      ],
      "timeFrom": null,
      "timeShift": null,
      "title": "Total errors",
      "type": "stat"
    },
    {
      "datasource": null,
      "description": "",
      "fieldConfig": {
        "defaults": {
          "custom": {},
          "mappings": [],
          "thresholds": {
            "mode": "absolute",
            "steps": [
              {
                "color": "green",
                "value": null
              }
            ]
          },
          "unit": "short"
        },
        "overrides": []
      },
      "gridPos": {
        "h": 5,
        "w": 5,
        "x": 14,
        "y": 14
      },
      "id": 16,
      "options": {
        "colorMode": "value",
        "graphMode": "none",
        "justifyMode": "auto",
        "orientation": "auto",
        "reduceOptions": {
          "calcs": [
            "lastNotNull"
          ],
          "fields": "",
          "values": false
        },
        "textMode": "auto"
      },
      "pluginVersion": "7.3.5",
      "targets": [
        {
          "expr": "smart_load_cycle_count{disk=\"/dev/sda\",instance=\"rpi01.scrw.ca:9100\"}",
          "interval": "",
          "legendFormat": "",
          "refId": "A"
        }
      ],
      "timeFrom": null,
      "timeShift": null,
      "title": "Load cycle count",
      "type": "stat"
    },
    {
      "datasource": null,
      "fieldConfig": {
        "defaults": {
          "custom": {},
          "decimals": 1,
          "mappings": [],
          "thresholds": {
            "mode": "absolute",
            "steps": [
              {
                "color": "green",
                "value": null
              }
            ]
          },
          "unit": "ms"
        },
        "overrides": []
      },
      "gridPos": {
        "h": 5,
        "w": 5,
        "x": 19,
        "y": 14
      },
      "id": 20,
      "options": {
        "colorMode": "value",
        "graphMode": "none",
        "justifyMode": "auto",
        "orientation": "auto",
        "reduceOptions": {
          "calcs": [
            "mean"
          ],
          "fields": "",
          "values": false
        },
        "textMode": "auto"
      },
      "pluginVersion": "7.3.5",
      "targets": [
        {
          "expr": "smart_spin_up_time{disk=\"/dev/sda\",instance=\"rpi01.scrw.ca:9100\"}",
          "interval": "",
          "legendFormat": "",
          "refId": "A"
        }
      ],
      "timeFrom": null,
      "timeShift": null,
      "title": "Spin up time",
      "type": "stat"
    },
    {
      "aliasColors": {
        "smart_temperature_celsius{disk=\"/dev/sda\", instance=\"rpi01.scrw.ca:9100\", job=\"rpi\"}": "orange"
      },
      "bars": false,
      "dashLength": 10,
      "dashes": false,
      "datasource": null,
      "description": "",
      "fieldConfig": {
        "defaults": {
          "custom": {},
          "unit": "celsius"
        },
        "overrides": []
      },
      "fill": 1,
      "fillGradient": 0,
      "gridPos": {
        "h": 7,
        "w": 12,
        "x": 0,
        "y": 19
      },
      "hiddenSeries": false,
      "id": 21,
      "legend": {
        "avg": false,
        "current": false,
        "max": false,
        "min": false,
        "show": false,
        "total": false,
        "values": false
      },
      "lines": true,
      "linewidth": 1,
      "nullPointMode": "null",
      "options": {
        "alertThreshold": true
      },
      "percentage": false,
      "pluginVersion": "7.3.5",
      "pointradius": 2,
      "points": false,
      "renderer": "flot",
      "seriesOverrides": [],
      "spaceLength": 10,
      "stack": false,
      "steppedLine": false,
      "targets": [
        {
          "expr": "smart_temperature_celsius{disk=\"/dev/sda\",instance=\"rpi01.scrw.ca:9100\"}",
          "interval": "",
          "legendFormat": "",
          "refId": "A"
        }
      ],
      "thresholds": [],
      "timeFrom": null,
      "timeRegions": [],
      "timeShift": null,
      "title": "Temperature",
      "tooltip": {
        "shared": true,
        "sort": 0,
        "value_type": "individual"
      },
      "type": "graph",
      "xaxis": {
        "buckets": null,
        "mode": "time",
        "name": null,
        "show": true,
        "values": []
      },
      "yaxes": [
        {
          "$$hashKey": "object:237",
          "format": "celsius",
          "label": "",
          "logBase": 1,
          "max": "80",
          "min": "0",
          "show": true
        },
        {
          "$$hashKey": "object:238",
          "decimals": null,
          "format": "short",
          "label": null,
          "logBase": 1,
          "max": "80",
          "min": "0",
          "show": true
        }
      ],
      "yaxis": {
        "align": false,
        "alignLevel": null
      }
    },
    {
      "aliasColors": {
        "smart_off_retract_count{disk=\"/dev/sdb\", instance=\"rpi01.scrw.ca:9100\", job=\"rpi\"}": "purple",
        "smart_power_cycle_count{disk=\"/dev/sdb\", instance=\"rpi01.scrw.ca:9100\", job=\"rpi\"}": "blue",
        "smart_start_stop_count{disk=\"/dev/sdb\", instance=\"rpi01.scrw.ca:9100\", job=\"rpi\"}": "orange"
      },
      "bars": false,
      "dashLength": 10,
      "dashes": false,
      "datasource": null,
      "description": "",
      "fieldConfig": {
        "defaults": {
          "custom": {}
        },
        "overrides": []
      },
      "fill": 0,
      "fillGradient": 0,
      "gridPos": {
        "h": 7,
        "w": 12,
        "x": 12,
        "y": 19
      },
      "hiddenSeries": false,
      "id": 14,
      "legend": {
        "avg": false,
        "current": false,
        "max": false,
        "min": false,
        "show": true,
        "total": false,
        "values": false
      },
      "lines": true,
      "linewidth": 2,
      "nullPointMode": "null",
      "options": {
        "alertThreshold": true
      },
      "percentage": false,
      "pluginVersion": "7.3.5",
      "pointradius": 2,
      "points": false,
      "renderer": "flot",
      "seriesOverrides": [],
      "spaceLength": 10,
      "stack": false,
      "steppedLine": false,
      "targets": [
        {
          "expr": "smart_start_stop_count{disk=\"/dev/sda\",instance=\"rpi01.scrw.ca:9100\"}",
          "interval": "",
          "legendFormat": "smart_start_stop_count",
          "refId": "A"
        },
        {
          "expr": "smart_power_cycle_count{disk=\"/dev/sda\",instance=\"rpi01.scrw.ca:9100\"}",
          "interval": "",
          "legendFormat": "smart_power_cycle_count",
          "refId": "B"
        },
        {
          "expr": "smart_off_retract_count{disk=\"/dev/sda\",instance=\"rpi01.scrw.ca:9100\"}",
          "interval": "",
          "legendFormat": "smart_off_retract_count",
          "refId": "C"
        }
      ],
      "thresholds": [],
      "timeFrom": null,
      "timeRegions": [],
      "timeShift": null,
      "title": "Other Counts",
      "tooltip": {
        "shared": true,
        "sort": 0,
        "value_type": "individual"
      },
      "type": "graph",
      "xaxis": {
        "buckets": null,
        "mode": "time",
        "name": null,
        "show": true,
        "values": []
      },
      "yaxes": [
        {
          "format": "short",
          "label": null,
          "logBase": 1,
          "max": null,
          "min": null,
          "show": true
        },
        {
          "format": "short",
          "label": null,
          "logBase": 1,
          "max": null,
          "min": null,
          "show": true
        }
      ],
      "yaxis": {
        "align": false,
        "alignLevel": null
      }
    }
  ],
  "schemaVersion": 26,
  "style": "dark",
  "tags": [],
  "templating": {
    "list": []
  },
  "time": {
    "from": "now-24h",
    "to": "now"
  },
  "timepicker": {},
  "timezone": "",
  "title": "SMART",
  "uid": "oPIYnfaGk",
  "version": 1
}